{  
   "caseName":{  
      "class":"Petition",
      "id":4934,
      "CaseName":"Delia*s Inc.",
      "debtorId":1079802
   },
   "docketName":"Objection of the Official Committee of Unsecured Creditors to Debtors' Motion to Authorize Debtors to Obtain Post-Petition Financing",
   "docketNumber":81,
   "amended":false,
   "previousVersion":null,
   "filingType":"Objection",
   "version":"First",
   "track":"4934-14",
   "mainDebtor":{  
      "id":1079802,
      "legalName":"Delia*s Inc.",
      "class":"Company",
      "companyTags":[  

      ]
   },
   "filing":[  
      {  
         "class":"Represent",
         "id":199559,
         "roleInCase":"Represent",
         "company":null,
         "firm":{  
            "id":686416,
            "legalName":"Kelley Drye & Warren LLP",
            "class":"Firm",
            "companyTags":[  
               "Firm"
            ]
         },
         "person":{  
            "class":"Lawyer",
            "id":1260920,
            "forenames":"James S.",
            "surname":"Carr",
            "profileImage":null
         },
         "caseName":{  
            "class":"Petition",
            "id":4934,
            "CaseName":"Delia*s Inc.",
            "debtorId":1079802
         },
         "committee":{  
            "id":3,
            "committee":"Official Committee of Unsecured Creditors",
            "class":"Committee"
         }
      }
   ],
   "dateFiled":"2014-12-21T12:00:00Z",
   "file":"/dummy-data/PDFs/sample-2.pdf",
   "partyReferenced":[  

   ],
   "exhibit":[  

   ],
   "relatedCase":[  

   ],
   "relatedDocuments":[  

   ],
   "arguments":[  

   ],
   "header":[  

   ],
   "caseEvents":[  

   ],
   "resolved":true,
   "class":"Objection",
   "id":2,
   "relatedFilingApp":null,
   "relatedFilingMotion":null,
   "relatedFilingNotice":null,
   "relatedFilingObjection":null,
   "relatedFilingOrder":null,
   "relatedFilingOther":null,
   "overview":null
}