{  
   "caseName":{  
      "class":"Petition",
      "id":4934,
      "CaseName":"Delia*s Inc.",
      "debtorId":1079802
   },
   "docketName":"Interim Order Authorizing Debtors to Obtain Post-Petition Financing and Use Cash Collateral ",
   "docketNumber":54,
   "amended":false,
   "previousVersion":null,
   "version":"First",
   "track":"4934-14",
   "mainDebtor":{  
      "id":1079802,
      "legalName":"Delia*s Inc.",
      "class":"Company",
      "companyTags":[  

      ]
   },
   "filingJudge":{  
      "class":"capso.core.Judge",
      "id":35,
      "court":{  
         "class":"capso.core.Court",
         "id":12
      },
      "name":"Judge Robert D. Drain"
   },
   "dateFiled":"2014-12-10T12:00:00Z",
   "file":"/dummy-data/PDFs/sample-3.pdf",
   "partyReferenced":[  

   ],
   "exhibit":[  

   ],
   "relatedCase":[  

   ],
   "relatedDocuments":[  

   ],
   "arguments":[  
      {  
         "name":"The Debtors Should be Authorized to Obtain Postpetition Financing on a Senior Secured and Superpriority Basis",
         "id":2,
         "class":"LegalArgument",
         "standards":[  

         ],
         "status":"Pending"
      },
      {  
         "name":"Entering Into the DIP Documents is an Exercise of the Debtors' Sound Business Judgment",
         "id":1,
         "class":"LegalArgument",
         "standards":[  
            {  
               "name":"Sound Business Judgment",
               "id":30,
               "class":"LegalStandard",
               "cites":[  
                  {  
                     "name":"Ames Dep't Stores, Inc., [115 B.R. 34] (Bankr. S.D.N.Y. 1990)",
                     "id":2,
                     "class":"Cite"
                  },
                  {  
                     "name":"Barbara K. Enters., Inc., Case No. 08-11474, 2008 WL 2439649 (Bankr. S.D.N.Y. June 16, 2008)",
                     "id":1,
                     "class":"Cite"
                  }
               ]
            }
         ],
         "status":"Pending"
      }
   ],
   "header":[  

   ],
   "caseEvents":[  

   ],
   "resolved":true,
   "finalHearing":null,
   "finalObjectionDeadline":null,
   "finalOrder":false,
   "orderRuling":{  
      "enumType":"enums.OrderRuling",
      "name":"YES"
   },
   "orderRulingInPart":null,
   "class":"OrderAppDIPFinanMotAndCashColl",
   "id":4186,
   "filingType":"Order",
   "relatedInterimOder":null,
   "availability":null,
   "interimBasisAvailability":null,
   "lender":[  

   ],
   "borrower":[  

   ],
   "guarantor":[  

   ],
   "adminAgent":[  

   ],
   "typeOfFacility":null,
   "termination":[  

   ],
   "revolver":null,
   "term":null,
   "maturityDate":null,
   "interestRate":null,
   "interestRateDescription":null,
   "defaultInterestRateAmount":null,
   "defaultInterestRatePercentage":null,
   "defaultInterestRateDescription":null,
   "unsuredLineFees":null,
   "letterOfCreditFees":null,
   "dipAgentFee":null,
   "collateral":null,
   "carveOut":null,
   "overview":null
}